\relax 
\catcode`"\active
\select@language{portuguese}
\@writefile{toc}{\select@language{portuguese}}
\@writefile{lof}{\select@language{portuguese}}
\@writefile{lot}{\select@language{portuguese}}
\@writefile{toc}{\contentsline {chapter}{\numberline {1}Facilidades e Dificuldades}{5}}
\@writefile{lof}{\addvspace {10\p@ }}
\@writefile{lot}{\addvspace {10\p@ }}
\@writefile{toc}{\contentsline {chapter}{\numberline {2}Considera\IeC {\c c}\IeC {\~o}es Gerais}{7}}
\@writefile{lof}{\addvspace {10\p@ }}
\@writefile{lot}{\addvspace {10\p@ }}
\@writefile{toc}{\contentsline {section}{\numberline {2.1}Prop\IeC {\'o}sito da Linguagem}{7}}
\@writefile{toc}{\contentsline {chapter}{\numberline {3}Elementos L\IeC {\'e}xicos}{9}}
\@writefile{lof}{\addvspace {10\p@ }}
\@writefile{lot}{\addvspace {10\p@ }}
\@writefile{toc}{\contentsline {section}{\numberline {3.1}Identificadores}{9}}
\@writefile{toc}{\contentsline {subsection}{\numberline {3.1.1}Sintaxe}{9}}
\@writefile{toc}{\contentsline {subsection}{\numberline {3.1.2}Exemplos}{9}}
\@writefile{toc}{\contentsline {section}{\numberline {3.2}Literais Num\IeC {\'e}ricos}{9}}
\@writefile{toc}{\contentsline {subsection}{\numberline {3.2.1}Sintaxe}{9}}
\@writefile{toc}{\contentsline {subsection}{\numberline {3.2.2}Exemplos}{10}}
\@writefile{toc}{\contentsline {section}{\numberline {3.3}Literais String}{10}}
\@writefile{toc}{\contentsline {subsection}{\numberline {3.3.1}Sintaxe}{10}}
\@writefile{toc}{\contentsline {subsection}{\numberline {3.3.2}Exemplos}{10}}
\@writefile{toc}{\contentsline {section}{\numberline {3.4}Palavras Reservadas}{10}}
\@writefile{toc}{\contentsline {chapter}{\numberline {4}Declara\IeC {\c c}\IeC {\~o}es e Tipos}{11}}
\@writefile{lof}{\addvspace {10\p@ }}
\@writefile{lot}{\addvspace {10\p@ }}
\@writefile{toc}{\contentsline {section}{\numberline {4.1}Declara\IeC {\c c}\IeC {\~o}es}{11}}
\@writefile{toc}{\contentsline {subsection}{\numberline {4.1.1}Declara\IeC {\c c}\IeC {\~a}o de Tipos}{12}}
\@writefile{toc}{\contentsline {subsubsection}{Declara\IeC {\c c}\IeC {\~a}o de Tipos de V\IeC {\'e}rtices}{13}}
\@writefile{toc}{\contentsline {subsubsection}{Declara\IeC {\c c}\IeC {\~a}o de Tipos de Arestas}{13}}
\@writefile{toc}{\contentsline {subsubsection}{Declara\IeC {\c c}\IeC {\~a}o de Grafos}{14}}
\@writefile{toc}{\contentsline {subsection}{\numberline {4.1.2}Declara\IeC {\c c}\IeC {\~a}o de Vari\IeC {\'a}veis}{15}}
\@writefile{toc}{\contentsline {subsection}{\numberline {4.1.3}Declara\IeC {\c c}\IeC {\~a}o de Subprogramas}{16}}
\@writefile{toc}{\contentsline {section}{\numberline {4.2}Tipos Primitivos}{17}}
\@writefile{toc}{\contentsline {subsection}{\numberline {4.2.1}Booleanos}{17}}
\@writefile{toc}{\contentsline {subsubsection}{Opera\IeC {\c c}\IeC {\~o}es sobre Booleanos}{17}}
\@writefile{toc}{\contentsline {subsection}{\numberline {4.2.2}Inteiros}{18}}
\@writefile{toc}{\contentsline {subsubsection}{Opera\IeC {\c c}\IeC {\~o}es sobre Inteiros}{18}}
\@writefile{toc}{\contentsline {subsection}{\numberline {4.2.3}Strings}{20}}
\@writefile{toc}{\contentsline {section}{\numberline {4.3}Tipos Compostos}{21}}
\@writefile{toc}{\contentsline {subsection}{\numberline {4.3.1}V\IeC {\'e}rtices}{21}}
\@writefile{toc}{\contentsline {subsubsection}{Opera\IeC {\c c}\IeC {\~o}es}{22}}
\@writefile{toc}{\contentsline {subsection}{\numberline {4.3.2}Arestas}{22}}
\@writefile{toc}{\contentsline {subsubsection}{Opera\IeC {\c c}\IeC {\~o}es}{24}}
\@writefile{toc}{\contentsline {subsection}{\numberline {4.3.3}Listas}{25}}
\@writefile{toc}{\contentsline {subsubsection}{Opera\IeC {\c c}\IeC {\~o}es}{26}}
\@writefile{toc}{\contentsline {section}{\numberline {4.4}Grafos}{28}}
\@writefile{toc}{\contentsline {subsubsection}{Opera\IeC {\c c}\IeC {\~o}es sobre Grafos}{28}}
\@writefile{toc}{\contentsline {chapter}{\numberline {5}Express\IeC {\~o}es}{33}}
\@writefile{lof}{\addvspace {10\p@ }}
\@writefile{lot}{\addvspace {10\p@ }}
\@writefile{toc}{\contentsline {section}{\numberline {5.1}Express\IeC {\~o}es Condicionais}{33}}
\@writefile{toc}{\contentsline {subsection}{\numberline {5.1.1}Sintaxe}{33}}
\@writefile{toc}{\contentsline {subsection}{\numberline {5.1.2}Exemplo}{33}}
\@writefile{toc}{\contentsline {chapter}{\numberline {6}Subprogramas}{35}}
\@writefile{lof}{\addvspace {10\p@ }}
\@writefile{lot}{\addvspace {10\p@ }}
\@writefile{toc}{\contentsline {section}{\numberline {6.1}Modo de Parametriza\IeC {\c c}\IeC {\~a}o}{35}}
\@writefile{toc}{\contentsline {section}{\numberline {6.2}Declara\IeC {\c c}\IeC {\~o}es de Fun\IeC {\c c}\IeC {\~o}es}{36}}
\@writefile{toc}{\contentsline {section}{\numberline {6.3}Express\IeC {\~a}o de Retorno}{36}}
\@writefile{toc}{\contentsline {section}{\numberline {6.4}Corpo de Fun\IeC {\c c}\IeC {\~o}es}{36}}
\@writefile{toc}{\contentsline {section}{\numberline {6.5}Chamada de Fun\IeC {\c c}\IeC {\~o}es}{37}}
\@writefile{toc}{\contentsline {chapter}{\numberline {7}Execu\IeC {\c c}\IeC {\~a}o do Programa}{39}}
\@writefile{lof}{\addvspace {10\p@ }}
\@writefile{lot}{\addvspace {10\p@ }}
\providecommand*\caption@xref[2]{\@setref\relax\@undefined{#1}}
\newlabel{debian}{{\caption@xref {debian}{ on input line 902}}{39}}
\@writefile{lof}{\contentsline {figure}{\numberline {7.1}{\ignorespaces \relax }}{39}}
\newlabel{debian}{{\caption@xref {debian}{ on input line 909}}{40}}
\@writefile{lof}{\contentsline {figure}{\numberline {7.2}{\ignorespaces \relax }}{40}}
\newlabel{debian}{{\caption@xref {debian}{ on input line 916}}{40}}
\@writefile{lof}{\contentsline {figure}{\numberline {7.3}{\ignorespaces \relax }}{40}}
\newlabel{debian}{{\caption@xref {debian}{ on input line 922}}{40}}
\@writefile{lof}{\contentsline {figure}{\numberline {7.4}{\ignorespaces \relax }}{40}}
\newlabel{debian}{{\caption@xref {debian}{ on input line 929}}{41}}
\@writefile{lof}{\contentsline {figure}{\numberline {7.5}{\ignorespaces \relax }}{41}}
\@writefile{toc}{\contentsline {chapter}{\numberline {8}Exemplo: Grafo Conexo}{43}}
\@writefile{lof}{\addvspace {10\p@ }}
\@writefile{lot}{\addvspace {10\p@ }}
\@writefile{toc}{\contentsline {section}{\numberline {8.1}Descri\IeC {\c c}\IeC {\~a}o do Problema}{43}}
\@writefile{toc}{\contentsline {section}{\numberline {8.2}Algoritmo}{43}}
\@writefile{toc}{\contentsline {subsection}{\numberline {8.2.1}Exemplos}{44}}
\@writefile{toc}{\contentsline {section}{\numberline {8.3}Literais Num\IeC {\'e}ricos}{45}}
\@writefile{toc}{\contentsline {subsection}{\numberline {8.3.1}Sintaxe}{45}}
\@writefile{toc}{\contentsline {subsection}{\numberline {8.3.2}Exemplos}{45}}
\@writefile{toc}{\contentsline {section}{\numberline {8.4}Literais String}{45}}
\@writefile{toc}{\contentsline {subsection}{\numberline {8.4.1}Sintaxe}{45}}
\@writefile{toc}{\contentsline {subsection}{\numberline {8.4.2}Exemplos}{45}}
\@writefile{toc}{\contentsline {section}{\numberline {8.5}Palavras Reservadas}{45}}
\@writefile{toc}{\contentsline {chapter}{\numberline {9}Declara\IeC {\c c}\IeC {\~o}es e Tipos}{47}}
\@writefile{lof}{\addvspace {10\p@ }}
\@writefile{lot}{\addvspace {10\p@ }}
\@writefile{toc}{\contentsline {section}{\numberline {9.1}Declara\IeC {\c c}\IeC {\~o}es}{47}}
\@writefile{toc}{\contentsline {subsection}{\numberline {9.1.1}Declara\IeC {\c c}\IeC {\~a}o de Tipos}{48}}
\@writefile{toc}{\contentsline {subsubsection}{Declara\IeC {\c c}\IeC {\~a}o de Tipos de V\IeC {\'e}rtices}{49}}
\@writefile{toc}{\contentsline {subsubsection}{Declara\IeC {\c c}\IeC {\~a}o de Tipos de Arestas}{49}}
\@writefile{toc}{\contentsline {subsubsection}{Declara\IeC {\c c}\IeC {\~a}o de Grafos}{50}}
\@writefile{toc}{\contentsline {subsection}{\numberline {9.1.2}Declara\IeC {\c c}\IeC {\~a}o de Vari\IeC {\'a}veis}{51}}
\@writefile{toc}{\contentsline {subsection}{\numberline {9.1.3}Declara\IeC {\c c}\IeC {\~a}o de Subprogramas}{52}}
\@writefile{toc}{\contentsline {section}{\numberline {9.2}Tipos Primitivos}{53}}
\@writefile{toc}{\contentsline {subsection}{\numberline {9.2.1}Booleanos}{53}}
\@writefile{toc}{\contentsline {subsubsection}{Opera\IeC {\c c}\IeC {\~o}es sobre Booleanos}{53}}
\@writefile{toc}{\contentsline {subsection}{\numberline {9.2.2}Inteiros}{54}}
\@writefile{toc}{\contentsline {subsubsection}{Opera\IeC {\c c}\IeC {\~o}es sobre Inteiros}{54}}
\@writefile{toc}{\contentsline {subsection}{\numberline {9.2.3}Strings}{56}}
\@writefile{toc}{\contentsline {section}{\numberline {9.3}Tipos Compostos}{57}}
\@writefile{toc}{\contentsline {subsection}{\numberline {9.3.1}V\IeC {\'e}rtices}{57}}
\@writefile{toc}{\contentsline {subsubsection}{Opera\IeC {\c c}\IeC {\~o}es}{58}}
\@writefile{toc}{\contentsline {subsection}{\numberline {9.3.2}Arestas}{58}}
\@writefile{toc}{\contentsline {subsubsection}{Opera\IeC {\c c}\IeC {\~o}es}{60}}
\@writefile{toc}{\contentsline {subsection}{\numberline {9.3.3}Listas}{61}}
\@writefile{toc}{\contentsline {subsubsection}{Opera\IeC {\c c}\IeC {\~o}es}{62}}
\@writefile{toc}{\contentsline {section}{\numberline {9.4}Grafos}{64}}
\@writefile{toc}{\contentsline {subsubsection}{Opera\IeC {\c c}\IeC {\~o}es sobre Grafos}{64}}
\@writefile{toc}{\contentsline {chapter}{\numberline {10}Express\IeC {\~o}es}{69}}
\@writefile{lof}{\addvspace {10\p@ }}
\@writefile{lot}{\addvspace {10\p@ }}
\@writefile{toc}{\contentsline {section}{\numberline {10.1}Express\IeC {\~o}es Condicionais}{69}}
\@writefile{toc}{\contentsline {subsection}{\numberline {10.1.1}Sintaxe}{69}}
\@writefile{toc}{\contentsline {subsection}{\numberline {10.1.2}Exemplo}{69}}
\@writefile{toc}{\contentsline {chapter}{\numberline {11}Subprogramas}{71}}
\@writefile{lof}{\addvspace {10\p@ }}
\@writefile{lot}{\addvspace {10\p@ }}
\@writefile{toc}{\contentsline {section}{\numberline {11.1}Modo de Parametriza\IeC {\c c}\IeC {\~a}o}{71}}
\@writefile{toc}{\contentsline {section}{\numberline {11.2}Declara\IeC {\c c}\IeC {\~o}es de Fun\IeC {\c c}\IeC {\~o}es}{72}}
\@writefile{toc}{\contentsline {section}{\numberline {11.3}Express\IeC {\~a}o de Retorno}{72}}
\@writefile{toc}{\contentsline {section}{\numberline {11.4}Corpo de Fun\IeC {\c c}\IeC {\~o}es}{72}}
\@writefile{toc}{\contentsline {section}{\numberline {11.5}Chamada de Fun\IeC {\c c}\IeC {\~o}es}{73}}
\@writefile{toc}{\contentsline {chapter}{\numberline {12}Execu\IeC {\c c}\IeC {\~a}o do Programa}{75}}
\@writefile{lof}{\addvspace {10\p@ }}
\@writefile{lot}{\addvspace {10\p@ }}
\newlabel{debian}{{\caption@xref {debian}{ on input line 1816}}{75}}
\@writefile{lof}{\contentsline {figure}{\numberline {12.1}{\ignorespaces \relax }}{75}}
\newlabel{debian}{{\caption@xref {debian}{ on input line 1823}}{76}}
\@writefile{lof}{\contentsline {figure}{\numberline {12.2}{\ignorespaces \relax }}{76}}
\newlabel{debian}{{\caption@xref {debian}{ on input line 1830}}{76}}
\@writefile{lof}{\contentsline {figure}{\numberline {12.3}{\ignorespaces \relax }}{76}}
\newlabel{debian}{{\caption@xref {debian}{ on input line 1836}}{76}}
\@writefile{lof}{\contentsline {figure}{\numberline {12.4}{\ignorespaces \relax }}{76}}
\newlabel{debian}{{\caption@xref {debian}{ on input line 1843}}{77}}
\@writefile{lof}{\contentsline {figure}{\numberline {12.5}{\ignorespaces \relax }}{77}}
\@writefile{toc}{\contentsline {chapter}{\numberline {13}Exemplo: Grafo Conexo}{79}}
\@writefile{lof}{\addvspace {10\p@ }}
\@writefile{lot}{\addvspace {10\p@ }}
\@writefile{toc}{\contentsline {section}{\numberline {13.1}Descri\IeC {\c c}\IeC {\~a}o do Problema}{79}}
\@writefile{toc}{\contentsline {section}{\numberline {13.2}Algoritmo}{79}}
\ttl@finishall
